{
  "root-path": "/var/www",
  "index-files": ["index.html"],
  "not-found": {
    "page": "/not-found.html",
    "status": 404
  },
  "skip-hidden-files": true,
  "http": {
    "port": 80,
    "swoole": {
      "worker_num": 8,
      "backlog": 128
    },
    "static-log-fields": {
      "server": "myapp.mydomain.com"
    }
  },
  "logs": [
    {
      "kind": "kernel",
      "type": "stdout",
      "format": "text"
    },
    {
      "kind": "access",
      "type": "file",
      "format": "json",
      "path": "/var/log/small-http-server/access.log"
    },
    {
      "kind": "error",
      "type": "http",
      "format": "json",
      "host": "127.0.0.1",
      "port": 9000,
      "protocol": "https"
    }
  ]
}